{
  "players": {
    "min": 2,
    "max": 5
  },

  "dice": {
    "count": 5,
    "symbols":
    {
      "sushi": 2,
      "aretes": 2,
      "baguettes bleues": 1,
      "baguettes rouge": 1
    }
  },

  "portion": {
    "sushi": [1, 1, 2, 2, 3, 3, 4, 4, 5, 5, 6, 6],
    "aretes": [-1, -1, -1, -1, -1, -2, -2, -2, -2, -3, -3, -4]
  }

}